{
  "project_info": {
    "project_number": "1028490507878",
    "project_id": "twogroup-93387",
    "storage_bucket": "twogroup-93387.appspot.com"
  },
  "client": [
    {
      "client_info": {
        "mobilesdk_app_id": "1:1028490507878:android:7358425a68604e2ab01fa7",
        "android_client_info": {
          "package_name": "com.saadh.twogroup"
        }
      },
      "oauth_client": [
        {
          "client_id": "1028490507878-0qsunjbmgtnmhg9cgm2nc8l9daqfn4fj.apps.googleusercontent.com",
          "client_type": 1,
          "android_info": {
            "package_name": "com.microprixs.two",
            "certificate_hash": "72f7b6d5a60cdc4c8f4b37e5a3e46e0e1e555e24"
          }
        },
        {
          "client_id": "1028490507878-3vkbc275ltsml6tugkm55ctcrvcqee51.apps.googleusercontent.com",
          "client_type": 3
        }
      ],
      "api_key": [
        {
          "current_key": "AIzaSyDWQexT1PInOlJnfYCMpKFkPkg3CnVF6rI"
        }
      ],
      "services": {
        "appinvite_service": {
          "other_platform_oauth_client": [
            {
              "client_id": "1028490507878-3vkbc275ltsml6tugkm55ctcrvcqee51.apps.googleusercontent.com",
              "client_type": 3
            }
          ]
        }
      }
    }
  ],
  "configuration_version": "1"
}